Assignment 3: Quantitive Analysis
…
anova_NP_development <- aov(NP ~ development, data = assignment3_vars) 
summary(anova_NP_development)

##                Df Sum Sq Mean Sq F value Pr(>F)    
## development     8    335   41.91   14.35 <2e-16 ***
## Residuals   15034  43909    2.92                   
## ---
## Signif. codes:  0 '***' 0.001 '**' 0.01 '*' 0.05 '.' 0.1 ' ' 1

# Calculate Tukey's Honestly Signigicant Difference Test
differences_NP_development <- TukeyHSD(anova_NP_development)
as_tibble(cbind(pair=row.names(differences_NP_development$NP),differences_NP_development$development))

## # A tibble: 36 x 4
##     diff     lwr   upr      `p adj`
##    <dbl>   <dbl> <dbl>        <dbl>
##  1 0.132 -0.178  0.441 0.926       
##  2 0.292  0.0410 0.543 0.00936     
##  3 0.550  0.302  0.798 0.0000000117
##  4 0.310  0.0796 0.540 0.000998    
##  5 0.417  0.188  0.646 0.000000602 
##  6 0.420  0.192  0.648 0.000000437 
##  7 0.600  0.368  0.832 0.0000000114
##  8 0.588  0.305  0.871 0.0000000160
##  9 0.160 -0.113  0.434 0.671       
## 10 0.418  0.147  0.689 0.0000598   
## # ... with 26 more rows
…
See 3.3 

4.4 Age of Person & Decade House Constructed 

Type of Test: A continuous variable and a Categorical Variable > ANOVA Test > Will give us significance of relationship.

anova_development_AGEP <- aov(AGEP ~development , data = assignment3_vars) 
summary(anova_development_AGEP)

# Calculate Tukey's Honestly Signigicant Difference Test
differences_development_AGEP <- TukeyHSD(anova_development_AGEP)
as_tibble(cbind(pair=row.names(differences_development_AGEP$development),differences_development_AGEP$AGEP))

## # A tibble: 36 x 1
##    pair            
##    <chr>           
##  1 1940s-1 pre 1940
##  2 1950s-1 pre 1940
##  3 1960s-1 pre 1940
##  4 1970s-1 pre 1940
##  5 1980s-1 pre 1940
##  6 1990s-1 pre 1940
##  7 2000s-1 pre 1940
##  8 2010s-1 pre 1940
##  9 1950s-1940s     
## 10 1960s-1940s     
## # ... with 26 more rows
…
anova_race_ethnicity_AGEP <- aov(AGEP ~race_ethnicity , data = assignment3_vars) 
summary(anova_race_ethnicity_AGEP)

##                   Df  Sum Sq Mean Sq F value Pr(>F)    
## race_ethnicity    10  507046   50705   94.36 <2e-16 ***
## Residuals      15032 8077579     537                   
## ---
## Signif. codes:  0 '***' 0.001 '**' 0.01 '*' 0.05 '.' 0.1 ' ' 1

# Calculate Tukey's Honestly Signigicant Difference Test
differences_race_ethnicity_AGEP <- TukeyHSD(anova_race_ethnicity_AGEP)
as_tibble(cbind(pair=row.names(differences_race_ethnicity_AGEP$race_ethnicity),differences_race_ethnicity_AGEP$AGEP))

## # A tibble: 55 x 1
##    pair                                           
##    <chr>                                          
##  1 Asian Hispanic-Asian (NH)                      
##  2 Black/African American (Hispanic)-Asian (NH)   
##  3 Black/African American (NH)-Asian (NH)         
##  4 Native American (Hispanic)-Asian (NH)          
##  5 Native American (NH)-Asian (NH)                
##  6 Other-Asian (NH)                               
##  7 Other Race or multiracial (Hispanic)-Asian (NH)
##  8 Other Race or Multiracial (NH)-Asian (NH)      
##  9 White (Hispanic)-Asian (NH)                    
## 10 White (NH)-Asian (NH)                          
## # ... with 45 more rows
…
